﻿{
 "StageList" : [
 	{
 	 "Question" : "Hány hónapból áll egy év?",
 	 "Answers" : ["2", "4","8","12"],
 	 "CorrectIndex" : 3
 	},
 	{
 	 "Question" : "Harmadik ",
 	 "Answers" : ["a", "b", "c","d"],
 	 "CorrectIndex" : 2
 	},
 	{
 	 "Question" : "Negyedik",
 	 "Answers" : ["a", "b", "c","d"],
 	 "CorrectIndex" : 3
 	},
 	{
 	 "Question" : "Hány évszak van?",
 	 "Answers" : ["1", "3", "4","2"],
 	 "CorrectIndex" : 2
 	},
 	{
 	 "Question" : "Mikor születtem?",
 	 "Answers" : ["1990", "1991", "1992","1993"],
 	 "CorrectIndex" : 1
 	},
 	{
 	 "Question" : "c==c ?",
 	 "Answers" : ["igen", "nem", "a","b"],
 	 "CorrectIndex" : 0
 	},
 ]
}